id;state_id;code;desc_01
1;1;AYER BALOI;Ayer Baloi
2;1;AYER HITAM;Ayer Hitam
3;1;AYER TAWAR 2;Ayer Tawar 2
4;1;BANDAR PENAWAR;Bandar Penawar
5;1;BANDAR TENGGARA;Bandar Tenggara
6;1;BATU ANAM;Batu Anam
7;1;BATU PAHAT;Batu Pahat
8;1;BEKOK;Bekok
9;1;BENUT;Benut
10;1;BUKIT GAMBIR;Bukit Gambir
11;1;BUKIT PASIR;Bukit Pasir
12;1;CHAAH;Chaah
13;1;ENDAU;Endau
14;1;GELANG PATAH;Gelang Patah
15;1;GERISEK;Gerisek
16;1;GUGUSAN TAIB ANDAK;Gugusan Taib Andak
17;1;JEMENTAH;Jementah
18;1;JOHOR BAHRU;Johor Bahru
19;1;KAHANG;Kahang
20;1;KLUANG;Kluang
21;1;KOTA TINGGI;Kota Tinggi
22;1;KUKUP;Kukup
23;1;KULAI;Kulai
24;1;LABIS;Labis
25;1;LAYANG-LAYANG;Layang-Layang
26;1;MASAI;Masai
27;1;MERSING;Mersing
28;1;MUAR;Muar
29;1;NUSAJAYA;Nusajaya
30;1;PAGOH;Pagoh
31;1;PALOH;Paloh
32;1;PANCHOR;Panchor
33;1;PARIT JAWA;Parit Jawa
34;1;PARIT RAJA;Parit Raja
35;1;PARIT SULONG;Parit Sulong
36;1;PASIR GUDANG;Pasir Gudang
37;1;PEKAN NENAS;Pekan Nenas
38;1;PENGERANG;Pengerang
39;1;PONTIAN;Pontian
40;1;RENGAM;Rengam
41;1;RENGIT;Rengit
42;1;SEGAMAT;Segamat
43;1;SEMERAH;Semerah
44;1;SENAI;Senai
45;1;SENGGARANG;Senggarang
46;1;SERI GADING;Seri Gading
47;1;SERI MEDAN;Seri Medan
48;1;SIMPANG RENGAM;Simpang Rengam
49;1;SRI GADING;Sri Gading
50;1;SRI MEDAN;Sri Medan
51;1;SUNGAI MATI;Sungai Mati
52;1;TANGKAK;Tangkak
53;1;ULU TIRAM;Ulu Tiram
54;1;YONG PENG;Yong Peng
55;10;ARAU;Arau
56;10;KAKI BUKIT;Kaki Bukit
57;10;KANGAR;Kangar
58;10;KUALA PERLIS;Kuala Perlis
59;10;PADANG BESAR;Padang Besar
60;10;SIMPANG AMPAT;Simpang Ampat
61;11;AYER ITAM;Ayer Itam
62;11;BALIK PULAU;Balik Pulau
63;11;BATU FERRINGHI;Batu Ferringhi
64;11;BATU MAUNG;Batu Maung
65;11;BAYAN LEPAS;Bayan Lepas
66;11;BUKIT MERTAJAM;Bukit Mertajam
67;11;BUTTERWORTH;Butterworth
68;11;GELUGOR;Gelugor
69;11;JELUTONG;Jelutong
70;11;KEPALA BATAS;Kepala Batas
71;11;KUBANG SEMANG;Kubang Semang
72;11;NIBONG TEBAL;Nibong Tebal
73;11;PADANG TEMBAK;Padang Tembak
74;11;PENAGA;Penaga
75;11;PENANG HILL;Penang Hill
76;11;PERAI;Perai
77;11;PERMATANG PAUH;Permatang Pauh
78;11;PULAU PINANG;Pulau Pinang
79;11;SUNGAI JAWI;Sungai Jawi
80;11;TANJONG BUNGAH;Tanjong Bungah
81;11;TANJUNG BUNGAH;Tanjung Bungah
82;11;TASEK GELUGOR;Tasek Gelugor
83;11;TASEK GELUGUR;Tasek Gelugur
84;11;USM PULAU PINANG;USM Pulau Pinang
85;12;AYER TAWAR;Ayer Tawar
86;12;BAGAN DATOH;Bagan Datoh
87;12;BAGAN SERAI;Bagan Serai
88;12;BANDAR SERI ISKANDAR;Bandar Seri Iskandar
89;12;BATU GAJAH;Batu Gajah
90;12;BATU KURAU;Batu Kurau
91;12;BEHRANG STESEN;Behrang Stesen
92;12;BIDOR;Bidor
93;12;BOTA;Bota
94;12;BRUAS;Bruas
95;12;CHANGKAT JERING;Changkat Jering
96;12;CHANGKAT KERUING;Changkat Keruing
97;12;CHEMOR;Chemor
98;12;CHENDERIANG;Chenderiang
99;12;CHENDERONG BALAI;Chenderong Balai
100;12;CHIKUS;Chikus
101;12;ENGGOR;Enggor
102;12;GERIK;Gerik
103;12;GOPENG;Gopeng
104;12;HUTAN MELINTANG;Hutan Melintang
105;12;INTAN;Intan
106;12;IPOH;Ipoh
107;12;JERAM;Jeram
108;12;KAMPAR;Kampar
109;12;KAMPUNG GAJAH;Kampung Gajah
110;12;KAMPUNG KEPAYANG;Kampung Kepayang
111;12;KAMUNTING;Kamunting
112;12;KUALA KANGSAR;Kuala Kangsar
113;12;KUALA KURAU;Kuala Kurau
114;12;KUALA SEPETANG;Kuala Sepetang
115;12;LAMBOR KANAN;Lambor Kanan
116;12;LANGKAP;Langkap
117;12;LENGGONG;Lenggong
118;12;LUMUT;Lumut
119;12;MALIM NAWAR;Malim Nawar
120;12;MAMBANG DI AWAN;Mambang Di Awan
121;12;MANONG;Manong
122;12;MATANG;Matang
123;12;PADANG RENGAS;Padang Rengas
124;12;PANGKOR;Pangkor
125;12;PANTAI REMIS;Pantai Remis
126;12;PARIT;Parit
127;12;PARIT BUNTAR;Parit Buntar
128;12;PENGKALAN HULU;Pengkalan Hulu
129;12;PUSING;Pusing
130;12;RANTAU PANJANG;Rantau Panjang
131;12;SAUK;Sauk
132;12;SELAMA;Selama
133;12;SELEKOH;Selekoh
134;12;SERI MANJONG;Seri Manjong
135;12;SERI MANJUNG;Seri Manjung
136;12;SIMPANG;Simpang
137;12;SIMPANG AMPAT SEMANGGOL;Simpang Ampat Semanggol
138;12;SITIAWAN;Sitiawan
139;12;SLIM RIVER;Slim River
140;12;SUNGAI SIPUT;Sungai Siput
141;12;SUNGAI SUMUN;Sungai Sumun
142;12;SUNGKAI;Sungkai
143;12;TAIPING;Taiping
144;12;TANJONG MALIM;Tanjong Malim
145;12;TANJONG PIANDANG;Tanjong Piandang
146;12;TANJONG RAMBUTAN;Tanjong Rambutan
147;12;TANJONG TUALANG;Tanjong Tualang
148;12;TAPAH;Tapah
149;12;TAPAH ROAD;Tapah Road
150;12;TELUK INTAN;Teluk Intan
151;12;TEMOH;Temoh
152;12;TLDM LUMUT;TLDM Lumut
153;12;TROLAK;Trolak
154;12;TRONG;Trong
155;12;TRONOH;Tronoh
156;12;ULU BERNAM;Ulu Bernam
157;12;ULU KINTA;Ulu Kinta
158;13;BEAUFORT;Beaufort
159;13;BELURAN;Beluran
160;13;BEVERLY;Beverly
161;13;BONGAWAN;Bongawan
162;13;INANAM;Inanam
163;13;KENINGAU;Keningau
164;13;KOTA BELUD;Kota Belud
165;13;KOTA KINABALU;Kota Kinabalu
166;13;KOTA KINABATANGAN;Kota Kinabatangan
167;13;KOTA MARUDU;Kota Marudu
168;13;KUALA PENYU;Kuala Penyu
169;13;KUDAT;Kudat
170;13;KUNAK;Kunak
171;13;LAHAD DATU;Lahad Datu
172;13;LIKAS;Likas
173;13;MEMBAKUT;Membakut
174;13;MENUMBOK;Menumbok
175;13;NABAWAN;Nabawan
176;13;PAMOL;Pamol
177;13;PAPAR;Papar
178;13;PENAMPANG;Penampang
179;13;PUTATAN;Putatan
180;13;RANAU;Ranau
181;13;SANDAKAN;Sandakan
182;13;SEMPORNA;Semporna
183;13;SIPITANG;Sipitang
184;13;TAMBUNAN;Tambunan
185;13;TAMPARULI;Tamparuli
186;13;TANJUNG ARU;Tanjung Aru
187;13;TAWAU;Tawau
188;13;TENGHILAN;Tenghilan
189;13;TENOM;Tenom
190;13;TUARAN;Tuaran
191;14;AMPANG;Ampang
192;14;BANDAR BARU BANGI;Bandar Baru Bangi
193;14;BANDAR PUNCAK ALAM;Bandar Puncak Alam
194;14;BANGI;Bangi
195;14;BANTING;Banting
196;14;BATANG BERJUNTAI;Batang Berjuntai
197;14;BATANG KALI;Batang Kali
198;14;BATU ARANG;Batu Arang
199;14;BATU CAVES;Batu Caves
200;14;BERANANG;Beranang
201;14;BUKIT ROTAN;Bukit Rotan
202;14;CHERAS;Cheras
203;14;CYBERJAYA;Cyberjaya
204;14;DENGKIL;Dengkil
205;14;GOMBAK;Gombak
206;14;HULU LANGAT;Hulu Langat
207;14;JENJAROM;Jenjarom
208;14;JERANTUT;Jerantut
209;14;KAJANG;Kajang
210;14;KAPAR;Kapar
211;14;KERLING;Kerling
212;14;KLANG;Klang
213;14;KLIA;KLIA
214;14;KUALA KUBU BARU;Kuala Kubu Baru
215;14;KUALA SELANGOR;Kuala Selangor
216;14;KUANTAN;Kuantan
217;14;PANDAN;Pandan
218;14;PELABUHAN KLANG;Pelabuhan Klang
219;14;PETALING JAYA;Petaling Jaya
220;14;PUCHONG;Puchong
221;14;PULAU CAREY;Pulau Carey
222;14;PULAU INDAH;Pulau Indah
223;14;PULAU KETAM;Pulau Ketam
224;14;RASA;Rasa
225;14;RAWANG;Rawang
226;14;SABAK BERNAM;Sabak Bernam
227;14;SEKINCHAN;Sekinchan
228;14;SEMENYIH;Semenyih
229;14;SEPANG;Sepang
230;14;SERDANG;Serdang
231;14;SERENDAH;Serendah
232;14;SERI KEMBANGAN;Seri Kembangan
233;14;SHAH ALAM;Shah Alam
234;14;SUBANG AIRPORT;Subang Airport
235;14;SUBANG JAYA;Subang Jaya
236;14;SUNGAI AYER TAWAR;Sungai Ayer Tawar
237;14;SUNGAI BESAR;Sungai Besar
238;14;SUNGAI BULOH;Sungai Buloh
239;14;SUNGAI PELEK;Sungai Pelek
240;14;TANJONG KARANG;Tanjong Karang
241;14;TANJONG SEPAT;Tanjong Sepat
242;14;TELOK PANGLIMA GARANG;Telok Panglima Garang
243;15;ASAJAYA;Asajaya
244;15;BALINGIAN;Balingian
245;15;BARAM;Baram
246;15;BAU;Bau
247;15;BEKENU;Bekenu
248;15;BELAGA;Belaga
249;15;BELAWAI;Belawai
250;15;BETONG;Betong
251;15;BINTANGOR;Bintangor
252;15;BINTULU;Bintulu
253;15;DALAT;Dalat
254;15;DARO;Daro
255;15;DEBAK;Debak
256;15;ENGKILILI;Engkilili
257;15;JULAU;Julau
258;15;KABONG;Kabong
259;15;KANOWIT;Kanowit
260;15;KAPIT;Kapit
261;15;KOTA SAMARAHAN;Kota Samarahan
262;15;KUCHING;Kuching
263;15;LAWAS;Lawas
264;15;LIMBANG;Limbang
265;15;LINGGA;Lingga
266;15;LONG LAMA;Long Lama
267;15;LUBOK ANTU;Lubok Antu
268;15;LUNDU;Lundu
269;15;LUTONG;Lutong
270;15;MATU;Matu
271;15;MIRI;Miri
272;15;MUKAH;Mukah
273;15;NANGA MEDAMIT;Nanga Medamit
274;15;NIAH;Niah
275;15;PUSA;Pusa
276;15;ROBAN;Roban
277;15;SARATOK;Saratok
278;15;SARIKEI;Sarikei
279;15;SEBAUH;Sebauh
280;15;SEBUYAU;Sebuyau
281;15;SERIAN;Serian
282;15;SIBU;Sibu
283;15;SIBURAN;Siburan
284;15;SIMUNJAN;Simunjan
285;15;SONG;Song
286;15;SPAOH;Spaoh
287;15;SRI AMAN;Sri Aman
288;15;SUNDAR;Sundar
289;15;TATAU;Tatau
290;16;AJIL;Ajil
291;16;AL MUKTATFI BILLAH SHAH;Al Muktatfi Billah Shah
292;16;AYER PUTEH;Ayer Puteh
293;16;BUKIT BESI;Bukit Besi
294;16;BUKIT PAYONG;Bukit Payong
295;16;CENEH;Ceneh
296;16;CHALOK;Chalok
297;16;CUKAI;Cukai
298;16;DUNGUN;Dungun
299;16;JERTEH;Jerteh
300;16;KAMPUNG RAJA;Kampung Raja
301;16;KEMASEK;Kemasek
302;16;KERTEH;Kerteh
303;16;KETENGAH JAYA;Ketengah Jaya
304;16;KIJAL;Kijal
305;16;KUALA BERANG;Kuala Berang
306;16;KUALA BESUT;Kuala Besut
307;16;KUALA TERENGGANU;Kuala Terengganu
308;16;MARANG;Marang
309;16;PAKA;Paka
310;16;PERMAISURI;Permaisuri
311;16;SUNGAI TONG;Sungai Tong
312;2;ALOR SETAR;Alor Setar
313;2;BALING;Baling
314;2;BANDAR BAHARU;Bandar Baharu
315;2;BANDAR BAHRU;Bandar Bahru
316;2;BEDONG;Bedong
317;2;BUKIT KAYU HITAM;Bukit Kayu Hitam
318;2;CHANGLOON;Changloon
319;2;GURUN;Gurun
320;2;JENIANG;Jeniang
321;2;JITRA;Jitra
322;2;KARANGAN;Karangan
323;2;KODIANG;Kodiang
324;2;KOTA KUALA MUDA;Kota Kuala Muda
325;2;KOTA SARANG SEMUT;Kota Sarang Semut
326;2;KUALA KEDAH;Kuala Kedah
327;2;KUALA KETIL;Kuala Ketil
328;2;KUALA NERANG;Kuala Nerang
329;2;KUALA PEGANG;Kuala Pegang
330;2;KULIM;Kulim
331;2;KUPANG;Kupang
332;2;LANGGAR;Langgar
333;2;LANGKAWI;Langkawi
334;2;LUNAS;Lunas
335;2;MERBOK;Merbok
336;2;PADANG SERAI;Padang Serai
337;2;PENDANG;Pendang
338;2;POKOK SENA;Pokok Sena
339;2;SIK;Sik
340;2;SIMPANG EMPAT;Simpang Empat
341;2;SUNGAI PETANI;Sungai Petani
342;2;UNIVERSITI UTARA MALAYSIA;Universiti Utara Malaysia
343;2;YAN;Yan
344;3;AYER LANAS;Ayer Lanas
345;3;BACHOK;Bachok
346;3;CHERANG RUKU;Cherang Ruku
347;3;DABONG;Dabong
348;3;GUA MUSANG;Gua Musang
349;3;JELI;Jeli
350;3;KEM DESA PAHLAWAN;Kem Desa Pahlawan
351;3;KETEREH;Ketereh
352;3;KOTA BAHRU;Kota Bahru
353;3;KOTA BHARU;Kota Bharu
354;3;KUALA BALAH;Kuala Balah
355;3;KUALA KRAI;Kuala Krai
356;3;MACHANG;Machang
357;3;MELOR;Melor
358;3;PASIR MAS;Pasir Mas
359;3;PASIR PUTEH;Pasir Puteh
360;3;PULAI CHONDONG;Pulai Chondong
361;3;SELISING;Selising
362;3;TANAH MERAH;Tanah Merah
363;3;TEMANGAN;Temangan
364;3;TUMPAT;Tumpat
365;3;WAKAF BHARU;Wakaf Bharu
366;4;KUALA LUMPUR;Kuala Lumpur
367;4;SETAPAK;Setapak
368;5;LABUAN;Labuan
369;6;AIR KEROH;Air Keroh
370;6;ALOR GAJAH;Alor Gajah
371;6;ASAHAN;Asahan
372;6;AYER KEROH;Ayer Keroh
373;6;BEMBAN;Bemban
374;6;DURIAN TUNGGAL;Durian Tunggal
375;6;JASIN;Jasin
376;6;KEM TRENDAK;Kem Trendak
377;6;KUALA SUNGAI BARU;Kuala Sungai Baru
378;6;LUBOK CHINA;Lubok China
379;6;MASJID TANAH;Masjid Tanah
380;6;MELAKA;Melaka
381;6;MERLIMAU;Merlimau
382;6;SELANDAR;Selandar
383;6;SUNGAI RAMBAI;Sungai Rambai
384;6;SUNGAI RAMBAI';Sungai Rambai'
385;6;SUNGAI UDANG;Sungai Udang
386;6;TANJONG KLING;Tanjong Kling
387;7;BAHAU;Bahau
388;7;BANDAR BARU ENSTEK;Bandar Baru Enstek
389;7;BANDAR SERI JEMPOL;Bandar Seri Jempol
390;7;BATU KIKIR;Batu Kikir
391;7;GEMAS;Gemas
392;7;GEMENCHEH;Gemencheh
393;7;JOHOL;Johol
394;7;KOTA;Kota
395;7;KUALA KLAWANG;Kuala Klawang
396;7;KUALA PILAH;Kuala Pilah
397;7;LABU;Labu
398;7;LINGGI;Linggi
399;7;MANTIN;Mantin
400;7;NILAI;Nilai
401;7;PORT DICKSON;Port Dickson
402;7;PUSAT BANDAR PALONG;Pusat Bandar Palong
403;7;RANTAU;Rantau
404;7;REMBAU;Rembau
405;7;ROMPIN;Rompin
406;7;SEREMBAN;Seremban
407;7;SI RUSA;Si Rusa
408;7;SIMPANG DURIAN;Simpang Durian
409;7;SIMPANG PERTANG;Simpang Pertang
410;7;TAMPIN;Tampin
411;7;TANJONG IPOH;Tanjong Ipoh
412;8;BALOK;Balok
413;8;BANDAR BERA;Bandar Bera
414;8;BANDAR PUSAT JENGKA;Bandar Pusat Jengka
415;8;BANDAR TUN ABDUL RAZAK;Bandar Tun Abdul Razak
416;8;BENTA;Benta
417;8;BENTONG;Bentong
418;8;BRINCHANG;Brinchang
419;8;BUKIT FRASER;Bukit Fraser
420;8;BUKIT GOH;Bukit Goh
421;8;CHENOR;Chenor
422;8;CHINI;Chini
423;8;DAMAK;Damak
424;8;DONG;Dong
425;8;GAMBANG;Gambang
426;8;GENTING HIGHLANDS;Genting Highlands
427;8;JAYA GADING;Jaya Gading
428;8;KARAK;Karak
429;8;KEMAYAN;Kemayan
430;8;KUALA KRAU;Kuala Krau
431;8;KUALA LIPIS;Kuala Lipis
432;8;KUALA ROMPIN;Kuala Rompin
433;8;LANCHANG;Lanchang
434;8;LURAH BILUT;Lurah Bilut
435;8;MARAN;Maran
436;8;MENTAKAB;Mentakab
437;8;MUADZAM SHAH;Muadzam Shah
438;8;PADANG TENGKU;Padang Tengku
439;8;PEKAN;Pekan
440;8;RAUB;Raub
441;8;RINGLET;Ringlet
442;8;SEGA;Sega
443;8;SUNGAI KOYAN;Sungai Koyan
444;8;SUNGAI LEMBING;Sungai Lembing
445;8;SUNGAI RUAN;Sungai Ruan
446;8;TANAH RATA;Tanah Rata
447;8;TEMERLOH;Temerloh
448;8;TRIANG;Triang
449;9;PUTRAJAYA;Putrajaya
